<svg width="35" height="35" viewBox="0 0 35 35" fill="none" xmlns="http://www.w3.org/2000/svg">
<path opacity="0.4" fill-rule="evenodd" clip-rule="evenodd" d="M35 17.5C35 27.165 27.165 35 17.5 35C7.83502 35 0 27.165 0 17.5C0 7.83502 7.83502 0 17.5 0C27.165 0 35 7.83502 35 17.5ZM12.8489 24.3159C13.3031 24.7546 13.9201 25.0008 14.5632 25C15.206 25.0006 15.8227 24.7544 16.2767 24.3159L25.9735 14.9715C26.9042 14.0567 26.8967 12.5903 25.9568 11.6844C25.0169 10.7784 23.4952 10.771 22.5457 11.6676L14.5632 19.36L12.121 17.0072C11.1715 16.1106 9.64978 16.1181 8.70986 17.024C7.76993 17.93 7.76248 19.3964 8.69315 20.3111L12.8489 24.3159Z" fill="white"/>
</svg>
