<svg width="30" height="30" viewBox="0 0 30 30" fill="none" xmlns="http://www.w3.org/2000/svg">
<path fill-rule="evenodd" clip-rule="evenodd" d="M15 30C23.2843 30 30 23.2843 30 15C30 6.71573 23.2843 0 15 0C6.71573 0 0 6.71573 0 15C0 23.2843 6.71573 30 15 30ZM9.70294 9.70294C10.6402 8.76569 12.1598 8.76569 13.0971 9.70294L15.2184 11.8243L17.3397 9.70294C18.277 8.76569 19.7966 8.76569 20.7338 9.70294C21.6711 10.6402 21.6711 12.1598 20.7338 13.0971L18.6125 15.2184L20.7338 17.3397C21.6711 18.277 21.6711 19.7966 20.7338 20.7338C19.7966 21.6711 18.277 21.6711 17.3397 20.7338L15.2184 18.6125L13.0971 20.7338C12.1598 21.6711 10.6402 21.6711 9.70294 20.7338C8.76568 19.7966 8.76568 18.277 9.70294 17.3397L11.8243 15.2184L9.70294 13.0971C8.76569 12.1598 8.76569 10.6402 9.70294 9.70294Z" fill="white"/>
</svg>
