<svg width="265" height="90" viewBox="0 0 265 90" fill="none" xmlns="http://www.w3.org/2000/svg">
<rect x="135" width="130" height="90" rx="8" fill="url(#paint0_linear)"/>
<rect x="135" width="130" height="90" rx="8" fill="url(#paint1_radial)"/>
<path fill-rule="evenodd" clip-rule="evenodd" d="M170 45C170 28.425 183.425 15 200 15C216.575 15 230 28.425 230 45C230 61.575 216.575 75 200 75C183.425 75 170 61.575 170 45ZM196.925 56.625L211.4 46.8C213.125 45.6 213.05 43.125 211.325 42.075L196.775 33.075C194.9 31.95 192.5 33.3 192.5 35.475V54.3C192.5 56.55 195.05 57.9 196.925 56.625Z" fill="white"/>
<path fill-rule="evenodd" clip-rule="evenodd" d="M39.3555 83.4258C39.681 83.4258 39.8438 83.6569 39.8438 84.1191C39.8438 84.5814 39.7591 84.9622 39.5898 85.2617C39.4206 85.5612 39.2253 85.8346 39.0039 86.082C38.7826 86.3294 38.5026 86.5638 38.1641 86.7852C37.3698 87.306 36.5332 87.5664 35.6543 87.5664C34.7754 87.5664 34.0788 87.459 33.5645 87.2441C33.0501 87.0293 32.6042 86.707 32.2266 86.2773C31.4193 85.3789 31.0156 84.1354 31.0156 82.5469C31.0156 80.8542 31.3411 78.7871 31.9922 76.3457C32.6432 73.9043 33.2715 71.8145 33.877 70.0762C34.4824 68.3379 35.1042 66.681 35.7422 65.1055L37.5 60.6328C35.5729 62.3646 33.1315 66.0039 30.1758 71.5508L25.4492 80.4961C22.9232 85.2097 21.1198 87.5664 20.0391 87.5664C18.9844 87.5664 18.2617 87.1107 17.8711 86.1992C17.5195 85.3268 17.3438 83.8457 17.3438 81.7559C17.3438 79.666 17.5098 77.6608 17.8418 75.7402C18.1738 73.8197 18.5937 71.9414 19.1016 70.1055C19.987 66.8633 21.1328 63.6472 22.5391 60.457C21.1719 61.2253 19.655 62.9375 17.9883 65.5938C16.7122 67.7162 15.8138 69.2656 15.293 70.2422L10.2539 79.5195C8.15754 83.3347 6.47136 85.6914 5.19531 86.5898C4.27083 87.2409 3.27474 87.5664 2.20703 87.5664C1.29557 87.5664 0.638023 87.28 0.234375 86.707C0.0781242 86.4727 0 86.2578 0 86.0625C0 85.8672 0.0585932 85.75 0.175781 85.7109C0.983077 85.4896 1.55273 85.2585 1.88477 85.0176C2.2168 84.7767 2.54557 84.5293 2.87109 84.2754C3.19662 84.0215 3.67187 83.4811 4.29688 82.6543C4.92188 81.8275 5.59895 80.8314 6.32812 79.666C7.0573 78.5006 7.81901 77.1953 8.61328 75.75L11.0938 71.1797C13.3854 66.7526 15.7812 63.2044 18.2812 60.5352C19.1667 59.5846 20.0391 58.849 20.8984 58.3281C21.7578 57.7161 22.7539 57.306 23.8867 57.0977C24.1992 57.0326 24.4889 57 24.7559 57C25.0228 57 25.3223 57.0391 25.6543 57.1172C25.9863 57.1953 26.276 57.319 26.5234 57.4883C27.0964 57.8789 27.2656 58.3997 27.0312 59.0508C26.9271 59.4414 26.7253 60.0273 26.4258 60.8086L25.3711 63.6016C22.9101 70.3985 21.5625 76.5833 21.3281 82.1562C22.0182 80.9713 22.7148 79.6758 23.418 78.2695L25.625 73.9141L27.9492 69.4805C31.53 62.8398 34.8568 59.0378 37.9297 58.0742C38.5677 57.8659 39.1016 57.7617 39.5312 57.7617C39.9609 57.7617 40.2995 57.8171 40.5469 57.9277C40.7943 58.0384 41.0156 58.1784 41.2109 58.3477C41.6667 58.7643 41.8229 59.1908 41.6797 59.627C41.5365 60.0632 41.3477 60.6198 41.1133 61.2969L38.2812 69.5586L37.2656 72.8008C36.1458 76.5508 35.4818 79.4284 35.2734 81.4336C35.1953 82.28 35.2897 82.9408 35.5566 83.416C35.8236 83.8913 36.1914 84.1289 36.6602 84.1289C37.1289 84.1289 37.4967 84.0931 37.7637 84.0215C38.0306 83.9499 38.2617 83.8685 38.457 83.7773L38.9648 83.543C39.1081 83.4648 39.2383 83.4258 39.3555 83.4258ZM43.6332 86.043C43.0864 85.5221 42.6567 84.8613 42.3442 84.0605C42.0317 83.2598 41.8689 82.3125 41.8559 81.2188C41.8429 80.125 41.9763 79.0182 42.2563 77.8984C42.5362 76.7786 42.9334 75.6979 43.4477 74.6562C43.962 73.6146 44.5805 72.638 45.3032 71.7266C46.0258 70.8151 46.8233 70.0208 47.6957 69.3438C49.5968 67.8854 51.5694 67.1562 53.6137 67.1562C56.296 67.1562 58.1124 68.3346 59.0629 70.6914C59.74 72.3971 59.7791 74.4609 59.1801 76.8828C58.6332 79.1094 57.6306 81.1536 56.1723 83.0156C54.727 84.8776 53.0213 86.1992 51.0551 86.9805C50.0655 87.3711 49.0922 87.5664 48.1352 87.5664C47.1781 87.5664 46.3253 87.4427 45.5766 87.1953C44.8279 86.9479 44.1801 86.5638 43.6332 86.043ZM47.3637 76.5703C46.9731 77.5339 46.6638 78.5234 46.436 79.5391C46.2081 80.5547 46.1007 81.515 46.1137 82.4199C46.1267 83.3249 46.2667 84.0345 46.5336 84.5488C46.8005 85.0632 47.2335 85.3203 47.8325 85.3203C48.4314 85.3203 49.0206 85.1152 49.6 84.7051C50.1795 84.2949 50.7426 83.7513 51.2895 83.0742C51.8364 82.3971 52.3507 81.6159 52.8325 80.7305C53.3142 79.845 53.7374 78.9206 54.102 77.957C54.8963 75.8607 55.2804 73.9987 55.2543 72.3711C55.2543 70.9388 54.9614 70.0273 54.3754 69.6367C54.141 69.4805 53.8123 69.4023 53.3891 69.4023C52.9659 69.4023 52.4809 69.5944 51.934 69.9785C51.3871 70.3626 50.8403 70.8802 50.2934 71.5312C49.7465 72.1823 49.2192 72.944 48.7114 73.8164C48.2035 74.6888 47.7543 75.6068 47.3637 76.5703ZM61.368 86.9023C61.1076 86.707 60.8993 86.4889 60.743 86.248C60.5868 86.0072 60.5021 85.7988 60.4891 85.623C60.4761 85.4473 60.5119 85.2324 60.5965 84.9785C60.6812 84.7246 60.7951 84.4154 60.9383 84.0508C63.5946 77.5143 64.9227 73.1263 64.9227 70.8867C64.8836 70.2617 64.6688 69.819 64.2782 69.5586L63.8876 69.2852C63.7704 69.194 63.7085 69.0345 63.702 68.8066C63.6955 68.5788 63.7769 68.3607 63.9461 68.1523C64.1154 67.944 64.3368 67.7617 64.6102 67.6055C65.1701 67.306 65.7463 67.1562 66.3387 67.1562C66.9312 67.1562 67.3934 67.2214 67.7254 67.3516C68.0575 67.4818 68.3407 67.6576 68.5751 67.8789C69.0698 68.3477 69.3205 68.8424 69.327 69.3633C69.3335 69.8841 69.2749 70.4115 69.1512 70.9453C69.0275 71.4792 68.881 72.0033 68.7118 72.5176C68.5425 73.0319 68.3732 73.5202 68.204 73.9824C68.0347 74.4447 67.924 74.7865 67.8719 75.0078C67.7678 75.4635 67.7287 75.75 67.7547 75.8672C68.0672 75.5937 68.256 75.3268 68.3211 75.0664L69.0829 73.6211C70.7756 70.5742 72.4292 68.556 74.0438 67.5664C74.5126 67.293 75.0757 67.1562 75.7333 67.1562C76.3908 67.1562 76.9214 67.3874 77.3251 67.8496C77.7287 68.3119 77.9403 68.8229 77.9598 69.3828C77.9793 69.9427 77.9403 70.4082 77.8426 70.7793C77.745 71.1504 77.5985 71.4987 77.4032 71.8242C76.9735 72.5534 76.4527 72.918 75.8407 72.918C75.6714 72.918 75.5152 72.8594 75.3719 72.7422L74.9422 72.3711C74.5126 71.9935 74.0991 71.8047 73.702 71.8047C73.3049 71.8047 72.8231 72.0651 72.2567 72.5859C71.6903 73.1068 71.1011 73.7773 70.4891 74.5977C68.4318 77.319 66.7521 80.3659 65.4501 83.7383L64.5907 86.0039C64.3693 86.5638 64.174 86.9642 64.0047 87.2051C63.8355 87.446 63.5848 87.5664 63.2528 87.5664C62.9208 87.5664 62.5887 87.5046 62.2567 87.3809C61.9247 87.2572 61.6284 87.0977 61.368 86.9023ZM76.7005 80.5352C76.7526 79.4023 76.9414 78.3184 77.2669 77.2832C77.5924 76.248 78.0286 75.2454 78.5755 74.2754C79.1224 73.3053 79.7636 72.3874 80.4993 71.5215C81.235 70.6556 82.0325 69.8971 82.8919 69.2461C84.7539 67.8529 86.6354 67.1562 88.5364 67.1562C90.763 67.1562 92.2473 68.0742 92.9895 69.9102C93.25 70.5352 93.3736 71.2741 93.3606 72.127C93.3476 72.9798 93.1849 73.7676 92.8723 74.4902C92.5598 75.2129 92.1269 75.8704 91.5735 76.4629C91.0201 77.0553 90.3626 77.5859 89.6009 78.0547C88.8391 78.5234 88.0091 78.9206 87.1106 79.2461C85.2617 79.8971 83.2825 80.2357 81.1731 80.2617C81.121 80.444 81.0885 80.7174 81.0755 81.082C81.0625 81.4466 81.1015 81.8535 81.1927 82.3027C81.2838 82.752 81.4401 83.1523 81.6614 83.5039C82.1302 84.2852 82.8072 84.6758 83.6927 84.6758C85.2031 84.6758 86.6744 84.2331 88.1067 83.3477C88.6145 83.0482 89.0279 82.7389 89.347 82.4199C89.666 82.1009 89.9427 81.9414 90.177 81.9414C90.4114 81.9414 90.6165 82.0814 90.7923 82.3613C90.9681 82.6413 91.0559 82.957 91.0559 83.3086C91.0559 83.9987 90.8606 84.5977 90.47 85.1055C88.8294 86.7461 86.388 87.5664 83.1458 87.5664C81.2317 87.5664 79.6953 86.9935 78.5364 85.8477C77.2343 84.5456 76.6223 82.7747 76.7005 80.5352ZM88.1067 69.7539C86.7395 69.7539 85.4244 70.6914 84.1614 72.5664C83.0937 74.181 82.2343 76.095 81.5833 78.3086C83.7578 78.0872 85.6458 77.2279 87.2473 75.7305C88.7187 74.3242 89.4544 72.9766 89.4544 71.6875C89.4544 70.3984 89.0052 69.7539 88.1067 69.7539Z" fill="white"/>
<path d="M42.0757 47.8579C42.0757 47.8579 60.9669 10.6991 108.036 24.1052" stroke="white" stroke-width="3"/>
<path d="M116.662 26.8332L103 31.4548L107.141 16L116.662 26.8332Z" fill="white"/>
<defs>
<linearGradient id="paint0_linear" x1="200" y1="-45" x2="115.76" y2="76.68" gradientUnits="userSpaceOnUse">
<stop stop-color="#FFB343"/>
<stop offset="1" stop-color="#FF7D43"/>
</linearGradient>
<radialGradient id="paint1_radial" cx="0" cy="0" r="1" gradientUnits="userSpaceOnUse" gradientTransform="translate(200 45) rotate(90) scale(45 94.129)">
<stop stop-color="#9F1200" stop-opacity="0.5"/>
<stop offset="1" stop-color="#FF0000" stop-opacity="0.01"/>
</radialGradient>
</defs>
</svg>
