<svg width="270" height="270" viewBox="0 0 270 270" fill="none" xmlns="http://www.w3.org/2000/svg">
<rect x="2" y="2" width="266" height="266" fill="white" stroke="black" stroke-width="4"/>
<path d="M55 46C55 37.1634 62.1634 30 71 30H199C207.837 30 215 37.1634 215 46V270H55V46Z" fill="black"/>
<path d="M65 52C65 45.3726 70.3726 40 77 40H193C199.627 40 205 45.3726 205 52V270H65V52Z" fill="white"/>
<path fill-rule="evenodd" clip-rule="evenodd" d="M95 110C92.2386 110 90 112.239 90 115V135C90 137.761 92.2386 140 95 140C97.7614 140 100 137.761 100 135V120H115C117.761 120 120 117.761 120 115C120 112.239 117.761 110 115 110H95ZM175 110C177.761 110 180 112.239 180 115V135C180 137.761 177.761 140 175 140C172.239 140 170 137.761 170 135V120H155C152.239 120 150 117.761 150 115C150 112.239 152.239 110 155 110H175ZM90 195C90 197.761 92.2386 200 95 200H115C117.761 200 120 197.761 120 195C120 192.239 117.761 190 115 190H100V175C100 172.239 97.7614 170 95 170C92.2386 170 90 172.239 90 175V195ZM175 200C177.761 200 180 197.761 180 195V175C180 172.239 177.761 170 175 170C172.239 170 170 172.239 170 175V190H155C152.239 190 150 192.239 150 195C150 197.761 152.239 200 155 200H175Z" fill="black"/>
<path fill-rule="evenodd" clip-rule="evenodd" d="M131 134C131 131.791 132.791 130 135 130C137.209 130 139 131.791 139 134V142C139 144.209 137.209 146 135 146C132.791 146 131 144.209 131 142V134ZM122.979 137.322C121.417 135.76 118.884 135.76 117.322 137.322C115.76 138.884 115.76 141.417 117.322 142.979L122.979 148.636C124.541 150.198 127.074 150.198 128.636 148.636C130.198 147.074 130.198 144.541 128.636 142.979L122.979 137.322ZM126 155C126 152.791 124.209 151 122 151H114C111.791 151 110 152.791 110 155C110 157.209 111.791 159 114 159H122C124.209 159 126 157.209 126 155ZM160 155C160 152.791 158.209 151 156 151H148C145.791 151 144 152.791 144 155C144 157.209 145.791 159 148 159H156C158.209 159 160 157.209 160 155ZM141.364 161.364C142.926 159.802 145.459 159.802 147.021 161.364L152.678 167.021C154.24 168.583 154.24 171.116 152.678 172.678C151.116 174.24 148.583 174.24 147.021 172.678L141.364 167.021C139.802 165.459 139.802 162.926 141.364 161.364ZM147.021 137.322C148.583 135.76 151.116 135.76 152.678 137.322C154.24 138.884 154.24 141.417 152.678 142.979L147.021 148.636C145.459 150.198 142.926 150.198 141.364 148.636C139.802 147.074 139.802 144.541 141.364 142.979L147.021 137.322ZM128.636 161.364C127.074 159.802 124.541 159.802 122.979 161.364L117.322 167.021C115.76 168.583 115.76 171.116 117.322 172.678C118.884 174.24 121.417 174.24 122.979 172.678L128.636 167.021C130.198 165.459 130.198 162.926 128.636 161.364ZM135 164C132.791 164 131 165.791 131 168V176C131 178.209 132.791 180 135 180C137.209 180 139 178.209 139 176V168C139 165.791 137.209 164 135 164Z" fill="black"/>
</svg>
